{
  "development": {
    "storage":"db/db.sqlite3",
    "dialect":"sqlite"
  },
  "test": {
    "storage":"db/db.sqlite3",
    "dialect":"sqlite"
  },
  "production": {
    "use_env_variable":"DATABASE_URL"
  }
}
